{
  "Version": "2012-10-17",
  "Statement": [
    {
      "Effect": "Allow",
      "Action": [
        "sts:GetCallerIdentity",
        "sts:AssumeRole"
      ],
      "Resource": "*"
    },
    {
      "Effect": "Allow",
      "Action": [
        "iam:AttachRolePolicy",
        "iam:CreateRole",
        "iam:DeleteRolePolicy",
        "iam:DeleteRole",
        "iam:DetachRolePolicy",
        "iam:GetRolePolicy",
        "iam:GetRole",
        "iam:ListAttachedRolePolicies",
        "iam:ListRolePolicies",
        "iam:PutRolePolicy",
        "iam:UpdateAssumeRolePolicy"
      ],
      "Resource": [
        "arn:aws:iam::*:role/openraven-*",
        "arn:aws:iam::*:role/orvn-*"
      ]
    }
  ]
}
